ST558 Project 1
…
Data Processing

We are interested in various types of census data, and aim to create functions that return visuals of said data from inputs of either urls or csv files. To start, we look at a single file before generalizing.

The file was made available at https://www4.stat.ncsu.edu/~online/datasets/EDU01a.csv. We could either download this locally and save it to our R session, accessing it through the working directory of our projects, or grab the data directly from the url. We opt for the latter. To start our analysis, we installed any packages we might need with install.packages, and call them here with library().

library(tidyverse)            
library(readxl)

url1="https://www4.stat.ncsu.edu/~online/datasets/EDU01a.csv"
census=read_csv(url1)
census

# A tibble: 3,198 × 42
   Area_name     STCOU EDU010187F EDU010187D EDU010187N1 EDU010187N2 EDU010188F
   <chr>         <chr>      <dbl>      <dbl> <chr>       <chr>            <dbl>
 1 UNITED STATES 00000          0   40024299 0000        0000                 0
 2 ALABAMA       01000          0     733735 0000        0000                 0
 3 Autauga, AL   01001          0       6829 0000        0000                 0
 4 Baldwin, AL   01003          0      16417 0000        0000                 0
 5 Barbour, AL   01005          0       5071 0000        0000                 0
 6 Bibb, AL      01007          0       3557 0000        0000                 0
 7 Blount, AL    01009          0       7319 0000        0000                 0
 8 Bullock, AL   01011          0       2014 0000        0000                 0
 9 Butler, AL    01013          0       4640 0000        0000                 0
10 Calhoun, AL   01015          0      20939 0000        0000                 0
# ℹ 3,188 more rows
# ℹ 35 more variables: EDU010188D <dbl>, EDU010188N1 <chr>, EDU010188N2 <chr>,
#   EDU010189F <dbl>, EDU010189D <dbl>, EDU010189N1 <chr>, EDU010189N2 <chr>,
#   EDU010190F <dbl>, EDU010190D <dbl>, EDU010190N1 <chr>, EDU010190N2 <chr>,
#   EDU010191F <dbl>, EDU010191D <dbl>, EDU010191N1 <chr>, EDU010191N2 <chr>,
#   EDU010192F <dbl>, EDU010192D <dbl>, EDU010192N1 <chr>, EDU010192N2 <chr>,
#   EDU010193F <dbl>, EDU010193D <dbl>, EDU010193N1 <chr>, EDU010193N2 <chr>, …
…
As is, the data is not in a great format for analysis. We want to filter down the data to just the columns we actually care about, and to put it in long format. That is, instead of a distinct area in each row with many different census types in the columns, we want to have just one record for each row, with an additional column added for the census code.

To choose the columns we want, ew use the select() function from the tidyverse. To keep our naming conventions consistent, we also want to rename() certain columns. Additionally, we want to transform our data structure so that the columns holding count data are put in a single column, and the data from those columns put in a new column called observed. We can do so with the pivot_longer() function. Putting all these steps together with the natural chaining operation |>, we can overwrite our object as follows:

census=census |>                   
  select(Area_name, STCOU, ends_with("D")) |>
  rename(area_name=Area_name) |>
  pivot_longer(cols=ends_with("D"),
               names_to="code",    
               values_to="observed")

census

# A tibble: 31,980 × 4
   area_name     STCOU code       observed
   <chr>         <chr> <chr>         <dbl>
 1 UNITED STATES 00000 EDU010187D 40024299
 2 UNITED STATES 00000 EDU010188D 39967624
 3 UNITED STATES 00000 EDU010189D 40317775
 4 UNITED STATES 00000 EDU010190D 40737600
 5 UNITED STATES 00000 EDU010191D 41385442
 6 UNITED STATES 00000 EDU010192D 42088151
 7 UNITED STATES 00000 EDU010193D 42724710
 8 UNITED STATES 00000 EDU010194D 43369917
 9 UNITED STATES 00000 EDU010195D 43993459
10 UNITED STATES 00000 EDU010196D 44715737
# ℹ 31,970 more rows
…
[1] 87 96

survey_year=as.numeric(ifelse(yy<=10,                        
                              paste0("200", yy),
                              paste0("19", yy)))

census=census |>
  mutate(survey_type=survey_type, survey_year=survey_year) |>
  select(area_name, STCOU, code, survey_type, survey_year, observed)

rm(yy, survey_type, survey_year)                             #no need to keep#

census

# A tibble: 31,980 × 6
   area_name     STCOU code       survey_type survey_year observed
   <chr>         <chr> <chr>      <chr>             <dbl>    <dbl>
 1 UNITED STATES 00000 EDU010187D EDU0101            1987 40024299
 2 UNITED STATES 00000 EDU010188D EDU0101            1988 39967624
 3 UNITED STATES 00000 EDU010189D EDU0101            1989 40317775
 4 UNITED STATES 00000 EDU010190D EDU0101            1990 40737600
 5 UNITED STATES 00000 EDU010191D EDU0101            1991 41385442
 6 UNITED STATES 00000 EDU010192D EDU0101            1992 42088151
 7 UNITED STATES 00000 EDU010193D EDU0101            1993 42724710
 8 UNITED STATES 00000 EDU010194D EDU0101            1994 43369917
 9 UNITED STATES 00000 EDU010195D EDU0101            1995 43993459
10 UNITED STATES 00000 EDU010196D EDU0101            1996 44715737
# ℹ 31,970 more rows
…
 [1] "UNITED STATES" "ALABAMA"       "Autauga, AL"   "Baldwin, AL"  
 [5] "Barbour, AL"   "Bibb, AL"      "Blount, AL"    "Bullock, AL"  
 [9] "Butler, AL"    "Calhoun, AL"  

Notice that commas exist in areas which have the county specified (like “Autauga, AL”), but there are no commas in areas without county-level data (like “ALABAMA”). We can split our existing census tibble into two different tibbles, one with county-level data and one without, by searching for the rows in the tibble which have a comma. The str_locate() function in the stringr package does the trick, taking in our vector of area_name’s, searching for the comma, and returning a matrix giving the starting and ending character of where the comma exists. Since a comma is only one character, we only need one of these columns, and so return just the first column from our matrix.

a=str_locate(census$area_name, ",")[,1]            #dummy object, no commas in non-county#
noncounty=census[which(is.na(a)),]                 #keep non-county data together#
county=census[which(!is.na(a)),]                   #keep county data together#
rm(a)                                              #no need to keep#

noncounty

# A tibble: 530 × 6
   area_name     STCOU code       survey_type survey_year observed
   <chr>         <chr> <chr>      <chr>             <dbl>    <dbl>
 1 UNITED STATES 00000 EDU010187D EDU0101            1987 40024299
 2 UNITED STATES 00000 EDU010188D EDU0101            1988 39967624
 3 UNITED STATES 00000 EDU010189D EDU0101            1989 40317775
 4 UNITED STATES 00000 EDU010190D EDU0101            1990 40737600
 5 UNITED STATES 00000 EDU010191D EDU0101            1991 41385442
 6 UNITED STATES 00000 EDU010192D EDU0101            1992 42088151
 7 UNITED STATES 00000 EDU010193D EDU0101            1993 42724710
 8 UNITED STATES 00000 EDU010194D EDU0101            1994 43369917
 9 UNITED STATES 00000 EDU010195D EDU0101            1995 43993459
10 UNITED STATES 00000 EDU010196D EDU0101            1996 44715737
# ℹ 520 more rows

county

# A tibble: 31,450 × 6
   area_name   STCOU code       survey_type survey_year observed
   <chr>       <chr> <chr>      <chr>             <dbl>    <dbl>
 1 Autauga, AL 01001 EDU010187D EDU0101            1987     6829
 2 Autauga, AL 01001 EDU010188D EDU0101            1988     6900
 3 Autauga, AL 01001 EDU010189D EDU0101            1989     6920
 4 Autauga, AL 01001 EDU010190D EDU0101            1990     6847
 5 Autauga, AL 01001 EDU010191D EDU0101            1991     7008
 6 Autauga, AL 01001 EDU010192D EDU0101            1992     7137
 7 Autauga, AL 01001 EDU010193D EDU0101            1993     7152
 8 Autauga, AL 01001 EDU010194D EDU0101            1994     7381
 9 Autauga, AL 01001 EDU010195D EDU0101            1995     7568
10 Autauga, AL 01001 EDU010196D EDU0101            1996     7834
# ℹ 31,440 more rows
…
Classifying States And Counties (Step 5)

With the distinct tables now in hand, we want to break up the area_name to both the county and state in the case of the county data, and to include the division in the case of the noncounty data.

In the county data, we are just extracting the last two characters of the string for the state abbreviation, and all parts of the string less the last four for the county (two for the state abbreviation, one for the space, one for the comma). We can do this succinctly with the same str_sub function, utilizing the nchar function in the process (which logically returns the number of characters a string has).

county=county |>
  mutate(state=str_sub(area_name, nchar(county$area_name) - 1, nchar(county$area_name)),
         district=str_sub(area_name, 1, nchar(county$area_name)-4)) |>
  select(area_name, state, district, everything())

county

# A tibble: 31,450 × 8
   area_name   state district STCOU code       survey_type survey_year observed
   <chr>       <chr> <chr>    <chr> <chr>      <chr>             <dbl>    <dbl>
 1 Autauga, AL AL    Autauga  01001 EDU010187D EDU0101            1987     6829
 2 Autauga, AL AL    Autauga  01001 EDU010188D EDU0101            1988     6900
 3 Autauga, AL AL    Autauga  01001 EDU010189D EDU0101            1989     6920
 4 Autauga, AL AL    Autauga  01001 EDU010190D EDU0101            1990     6847
 5 Autauga, AL AL    Autauga  01001 EDU010191D EDU0101            1991     7008
 6 Autauga, AL AL    Autauga  01001 EDU010192D EDU0101            1992     7137
 7 Autauga, AL AL    Autauga  01001 EDU010193D EDU0101            1993     7152
 8 Autauga, AL AL    Autauga  01001 EDU010194D EDU0101            1994     7381
 9 Autauga, AL AL    Autauga  01001 EDU010195D EDU0101            1995     7568
10 Autauga, AL AL    Autauga  01001 EDU010196D EDU0101            1996     7834
# ℹ 31,440 more rows
…
noncounty$division=division
noncounty=noncounty |> select(area_name, division, everything())

rm(d1,d2,d3,d4,d5,d6,d7,d8,d9,region,division,i,j)      #keep environment clean#

noncounty

# A tibble: 530 × 7
   area_name     division STCOU code       survey_type survey_year observed
   <chr>         <chr>    <chr> <chr>      <chr>             <dbl>    <dbl>
 1 UNITED STATES ERROR    00000 EDU010187D EDU0101            1987 40024299
 2 UNITED STATES ERROR    00000 EDU010188D EDU0101            1988 39967624
 3 UNITED STATES ERROR    00000 EDU010189D EDU0101            1989 40317775
 4 UNITED STATES ERROR    00000 EDU010190D EDU0101            1990 40737600
 5 UNITED STATES ERROR    00000 EDU010191D EDU0101            1991 41385442
 6 UNITED STATES ERROR    00000 EDU010192D EDU0101            1992 42088151
 7 UNITED STATES ERROR    00000 EDU010193D EDU0101            1993 42724710
 8 UNITED STATES ERROR    00000 EDU010194D EDU0101            1994 43369917
 9 UNITED STATES ERROR    00000 EDU010195D EDU0101            1995 43993459
10 UNITED STATES ERROR    00000 EDU010196D EDU0101            1996 44715737
# ℹ 520 more rows
…
tibble2=function_wrap(url2)

Rows: 3198 Columns: 42
── Column specification ────────────────────────────────────────────────────────
Delimiter: ","
chr (22): Area_name, STCOU, EDU010197N1, EDU010197N2, EDU010198N1, EDU010198...
dbl (20): EDU010197F, EDU010197D, EDU010198F, EDU010198D, EDU010199F, EDU010...

ℹ Use `spec()` to retrieve the full column specification for this data.
ℹ Specify the column types or set `show_col_types = FALSE` to quiet this message.

tibble1

[[1]]
# A tibble: 31,450 × 8
   area_name   state district STCOU code       survey_type survey_year observed
   <chr>       <chr> <chr>    <chr> <chr>      <chr>             <dbl>    <dbl>
 1 Autauga, AL AL    Autauga  01001 EDU010187D EDU0101            1987     6829
 2 Autauga, AL AL    Autauga  01001 EDU010188D EDU0101            1988     6900
 3 Autauga, AL AL    Autauga  01001 EDU010189D EDU0101            1989     6920
 4 Autauga, AL AL    Autauga  01001 EDU010190D EDU0101            1990     6847
 5 Autauga, AL AL    Autauga  01001 EDU010191D EDU0101            1991     7008
 6 Autauga, AL AL    Autauga  01001 EDU010192D EDU0101            1992     7137
 7 Autauga, AL AL    Autauga  01001 EDU010193D EDU0101            1993     7152
 8 Autauga, AL AL    Autauga  01001 EDU010194D EDU0101            1994     7381
 9 Autauga, AL AL    Autauga  01001 EDU010195D EDU0101            1995     7568
10 Autauga, AL AL    Autauga  01001 EDU010196D EDU0101            1996     7834
# ℹ 31,440 more rows

[[2]]
# A tibble: 530 × 7
   area_name     division STCOU code       survey_type survey_year observed
   <chr>         <chr>    <chr> <chr>      <chr>             <dbl>    <dbl>
 1 UNITED STATES ERROR    00000 EDU010187D EDU0101            1987 40024299
 2 UNITED STATES ERROR    00000 EDU010188D EDU0101            1988 39967624
 3 UNITED STATES ERROR    00000 EDU010189D EDU0101            1989 40317775
 4 UNITED STATES ERROR    00000 EDU010190D EDU0101            1990 40737600
 5 UNITED STATES ERROR    00000 EDU010191D EDU0101            1991 41385442
 6 UNITED STATES ERROR    00000 EDU010192D EDU0101            1992 42088151
 7 UNITED STATES ERROR    00000 EDU010193D EDU0101            1993 42724710
 8 UNITED STATES ERROR    00000 EDU010194D EDU0101            1994 43369917
 9 UNITED STATES ERROR    00000 EDU010195D EDU0101            1995 43993459
10 UNITED STATES ERROR    00000 EDU010196D EDU0101            1996 44715737
# ℹ 520 more rows

tibble2

[[1]]
# A tibble: 31,450 × 8
   area_name   state district STCOU code       survey_type survey_year observed
   <chr>       <chr> <chr>    <chr> <chr>      <chr>             <dbl>    <dbl>
 1 Autauga, AL AL    Autauga  01001 EDU010197D EDU0101            1997     8099
 2 Autauga, AL AL    Autauga  01001 EDU010198D EDU0101            1998     8211
 3 Autauga, AL AL    Autauga  01001 EDU010199D EDU0101            1999     8489
 4 Autauga, AL AL    Autauga  01001 EDU010200D EDU0102            2000     8912
 5 Autauga, AL AL    Autauga  01001 EDU010201D EDU0102            2001     8626
 6 Autauga, AL AL    Autauga  01001 EDU010202D EDU0102            2002     8762
 7 Autauga, AL AL    Autauga  01001 EDU015203D EDU0152            2003     9105
 8 Autauga, AL AL    Autauga  01001 EDU015204D EDU0152            2004     9200
 9 Autauga, AL AL    Autauga  01001 EDU015205D EDU0152            2005     9559
10 Autauga, AL AL    Autauga  01001 EDU015206D EDU0152            2006     9652
# ℹ 31,440 more rows

[[2]]
# A tibble: 530 × 7
   area_name     division STCOU code       survey_type survey_year observed
   <chr>         <chr>    <chr> <chr>      <chr>             <dbl>    <dbl>
 1 UNITED STATES ERROR    00000 EDU010197D EDU0101            1997 44534459
 2 UNITED STATES ERROR    00000 EDU010198D EDU0101            1998 46245814
 3 UNITED STATES ERROR    00000 EDU010199D EDU0101            1999 46368903
 4 UNITED STATES ERROR    00000 EDU010200D EDU0102            2000 46818690
 5 UNITED STATES ERROR    00000 EDU010201D EDU0102            2001 47127066
 6 UNITED STATES ERROR    00000 EDU010202D EDU0102            2002 47606570
 7 UNITED STATES ERROR    00000 EDU015203D EDU0152            2003 48506317
 8 UNITED STATES ERROR    00000 EDU015204D EDU0152            2004 48693287
 9 UNITED STATES ERROR    00000 EDU015205D EDU0152            2005 48978555
10 UNITED STATES ERROR    00000 EDU015206D EDU0152            2006 49140702
# ℹ 520 more rows
Call Function And Combine Data

We then write a function to combine like data with like data (i.e. the county data from the first data source is combined with the county data from the second data source). We use the base function rbind() to do so, though we could also use the dplyr function bind_rows().

function_combine=function(mytib1, mytib2) {
  county_data=rbind(mytib1[[1]],mytib2[[1]])
  non_county_data=rbind(mytib1[[2]], mytib2[[2]])
  return(list(county_data, non_county_data))
}

combined_data=function_combine(tibble1,tibble2)
combined_data

[[1]]
# A tibble: 62,900 × 8
   area_name   state district STCOU code       survey_type survey_year observed
   <chr>       <chr> <chr>    <chr> <chr>      <chr>             <dbl>    <dbl>
 1 Autauga, AL AL    Autauga  01001 EDU010187D EDU0101            1987     6829
 2 Autauga, AL AL    Autauga  01001 EDU010188D EDU0101            1988     6900
 3 Autauga, AL AL    Autauga  01001 EDU010189D EDU0101            1989     6920
 4 Autauga, AL AL    Autauga  01001 EDU010190D EDU0101            1990     6847
 5 Autauga, AL AL    Autauga  01001 EDU010191D EDU0101            1991     7008
 6 Autauga, AL AL    Autauga  01001 EDU010192D EDU0101            1992     7137
 7 Autauga, AL AL    Autauga  01001 EDU010193D EDU0101            1993     7152
 8 Autauga, AL AL    Autauga  01001 EDU010194D EDU0101            1994     7381
 9 Autauga, AL AL    Autauga  01001 EDU010195D EDU0101            1995     7568
10 Autauga, AL AL    Autauga  01001 EDU010196D EDU0101            1996     7834
# ℹ 62,890 more rows

[[2]]
# A tibble: 1,060 × 7
   area_name     division STCOU code       survey_type survey_year observed
   <chr>         <chr>    <chr> <chr>      <chr>             <dbl>    <dbl>
 1 UNITED STATES ERROR    00000 EDU010187D EDU0101            1987 40024299
 2 UNITED STATES ERROR    00000 EDU010188D EDU0101            1988 39967624
 3 UNITED STATES ERROR    00000 EDU010189D EDU0101            1989 40317775
 4 UNITED STATES ERROR    00000 EDU010190D EDU0101            1990 40737600
 5 UNITED STATES ERROR    00000 EDU010191D EDU0101            1991 41385442
 6 UNITED STATES ERROR    00000 EDU010192D EDU0101            1992 42088151
 7 UNITED STATES ERROR    00000 EDU010193D EDU0101            1993 42724710
 8 UNITED STATES ERROR    00000 EDU010194D EDU0101            1994 43369917
 9 UNITED STATES ERROR    00000 EDU010195D EDU0101            1995 43993459
10 UNITED STATES ERROR    00000 EDU010196D EDU0101            1996 44715737
# ℹ 1,050 more rows
…
We then combine the data with our previously created function_combine(). We want to combine the first two urls and the last four urls.

first_urls=function_combine(data1,data2)
second_urls=function_combine(data3,
  function_combine(data4,
    function_combine(data5, data6)))

first_urls

[[1]]
# A tibble: 62,900 × 8
   area_name   state district STCOU code       survey_type survey_year observed
   <chr>       <chr> <chr>    <chr> <chr>      <chr>             <dbl>    <dbl>
 1 Autauga, AL AL    Autauga  01001 EDU010187D EDU0101            1987     6829
 2 Autauga, AL AL    Autauga  01001 EDU010188D EDU0101            1988     6900
 3 Autauga, AL AL    Autauga  01001 EDU010189D EDU0101            1989     6920
 4 Autauga, AL AL    Autauga  01001 EDU010190D EDU0101            1990     6847
 5 Autauga, AL AL    Autauga  01001 EDU010191D EDU0101            1991     7008
 6 Autauga, AL AL    Autauga  01001 EDU010192D EDU0101            1992     7137
 7 Autauga, AL AL    Autauga  01001 EDU010193D EDU0101            1993     7152
 8 Autauga, AL AL    Autauga  01001 EDU010194D EDU0101            1994     7381
 9 Autauga, AL AL    Autauga  01001 EDU010195D EDU0101            1995     7568
10 Autauga, AL AL    Autauga  01001 EDU010196D EDU0101            1996     7834
# ℹ 62,890 more rows
…
